<?xml version="1.0" encoding="UTF-8" standalone="no"?>
<svg
   xmlns:dc="http://purl.org/dc/elements/1.1/"
   xmlns:cc="http://creativecommons.org/ns#"
   xmlns:rdf="http://www.w3.org/1999/02/22-rdf-syntax-ns#"
   xmlns:svg="http://www.w3.org/2000/svg"
   xmlns="http://www.w3.org/2000/svg"
   xmlns:sodipodi="http://sodipodi.sourceforge.net/DTD/sodipodi-0.dtd"
   xmlns:inkscape="http://www.inkscape.org/namespaces/inkscape"
   version="1.0"
   width="213.000000pt"
   height="231.000000pt"
   viewBox="0 0 213.000000 231.000000"
   preserveAspectRatio="xMidYMid meet"
   id="svg2"
   inkscape:version="0.91 r13725"
   sodipodi:docname="transform.svg">
  <defs
     id="defs14" />
  <sodipodi:namedview
     pagecolor="#ffffff"
     bordercolor="#666666"
     borderopacity="1"
     objecttolerance="10"
     gridtolerance="10"
     guidetolerance="10"
     inkscape:pageopacity="0"
     inkscape:pageshadow="2"
     inkscape:window-width="1920"
     inkscape:window-height="1056"
     id="namedview12"
     showgrid="false"
     inkscape:zoom="0.81731602"
     inkscape:cx="133.125"
     inkscape:cy="95.434322"
     inkscape:window-x="0"
     inkscape:window-y="24"
     inkscape:window-maximized="1"
     inkscape:current-layer="svg2" />
  <metadata
     id="metadata4">
Created by potrace 1.13, written by Peter Selinger 2001-2015
<rdf:RDF>
  <cc:Work
     rdf:about="">
    <dc:format>image/svg+xml</dc:format>
    <dc:type
       rdf:resource="http://purl.org/dc/dcmitype/StillImage" />
  </cc:Work>
</rdf:RDF>
</metadata>
  <path
     style="fill:#ff0066;stroke:none;fill-opacity:1"
     inkscape:connector-curvature="0"
     id="path8"
     d="m 152.5,1.4 c -12.6,3 -24.6,12.9 -32,26 l -3.5,6.3 0,33.1 c 0,20.4 0.4,33.2 1,33.2 0.5,0 1.9,-0.4 3.2,-0.9 1.3,-0.6 12.2,-4 24.3,-7.6 12.1,-3.7 23.8,-7.3 26,-8 2.2,-0.7 7.4,-2.3 11.5,-3.5 4.1,-1.2 10.8,-3.3 14.9,-4.6 4.1,-1.3 7.6,-2.2 7.9,-2 0.2,0.2 -1.6,1.5 -4,2.9 -2.4,1.3 -14.4,8.2 -26.8,15.2 -12.4,7 -30.5,17.3 -40.2,22.9 l -17.8,10.1 0,37.2 c 0,20.5 0.3,37.3 0.8,37.3 1.5,0 12.8,-7.4 21.1,-13.8 11,-8.5 29.7,-27.2 38.2,-38.2 24.4,-31.4 36.1,-61.7 34.6,-89.6 -2,-36.5 -30.1,-63.1 -59.2,-56 z" />
  <path
     style="fill:#002680;stroke:none;fill-opacity:1"
     inkscape:connector-curvature="0"
     id="path10"
     d="M 40,32.6 C 24.1,36.8 9.4,52.8 3.6,72 0.9,80.8 0.4,97.9 2.5,109.6 c 5.3,30 22.3,59.2 51.5,88.5 16.1,16.1 39.3,33.9 41.5,31.8 0.3,-0.3 0.4,-28.1 0.3,-61.6 L 95.5,107.2 54,120.1 c -22.8,7 -41.6,12.6 -41.8,12.4 -0.2,-0.2 1.6,-1.4 4,-2.8 2.4,-1.3 11.3,-6.4 19.8,-11.2 8.5,-4.8 20,-11.4 25.5,-14.5 5.5,-3.2 12.7,-7.3 16,-9.1 3.3,-1.7 7.1,-3.9 8.5,-4.8 1.4,-0.9 4.2,-2.6 6.3,-3.6 l 3.7,-2 0,-9.8 c 0,-9 -0.3,-10.3 -3.1,-16 C 89,51.1 77.5,39.3 70.5,35.8 61.1,31 50.2,29.9 40,32.6 Z" />
</svg>
